[2024-04-22T00:24:36.199+0000] {local_task_job_runner.py:120} INFO - ::group::Pre task execution logs
[2024-04-22T00:24:36.212+0000] {taskinstance.py:2073} INFO - Dependencies all met for dep_context=non-requeueable deps ti=<TaskInstance: finances_a.wait_operations_a_calculate_expenses manual__2024-04-22T00:24:32.859083+00:00 [queued]>
[2024-04-22T00:24:36.216+0000] {taskinstance.py:2073} INFO - Dependencies all met for dep_context=requeueable deps ti=<TaskInstance: finances_a.wait_operations_a_calculate_expenses manual__2024-04-22T00:24:32.859083+00:00 [queued]>
[2024-04-22T00:24:36.216+0000] {taskinstance.py:2303} INFO - Starting attempt 1 of 4
[2024-04-22T00:24:36.223+0000] {taskinstance.py:2327} INFO - Executing <Task(ExternalTaskSensor): wait_operations_a_calculate_expenses> on 2024-04-22 00:24:32.859083+00:00
[2024-04-22T00:24:36.225+0000] {standard_task_runner.py:63} INFO - Started process 3330 to run task
[2024-04-22T00:24:36.226+0000] {standard_task_runner.py:90} INFO - Running: ['***', 'tasks', 'run', 'finances_a', 'wait_operations_a_calculate_expenses', 'manual__2024-04-22T00:24:32.859083+00:00', '--job-id', '63', '--raw', '--subdir', 'DAGS_FOLDER/cross-dag-example/finances.py', '--cfg-path', '/tmp/tmpdct99_2v']
[2024-04-22T00:24:36.227+0000] {standard_task_runner.py:91} INFO - Job 63: Subtask wait_operations_a_calculate_expenses
[2024-04-22T00:24:36.254+0000] {task_command.py:426} INFO - Running <TaskInstance: finances_a.wait_operations_a_calculate_expenses manual__2024-04-22T00:24:32.859083+00:00 [running]> on host e362671732b5
[2024-04-22T00:24:36.366+0000] {taskinstance.py:2644} INFO - Exporting env vars: AIRFLOW_CTX_DAG_EMAIL='finances+***@example.com' AIRFLOW_CTX_DAG_OWNER='Finances' AIRFLOW_CTX_DAG_ID='finances_a' AIRFLOW_CTX_TASK_ID='wait_operations_a_calculate_expenses' AIRFLOW_CTX_EXECUTION_DATE='2024-04-22T00:24:32.859083+00:00' AIRFLOW_CTX_TRY_NUMBER='1' AIRFLOW_CTX_DAG_RUN_ID='manual__2024-04-22T00:24:32.859083+00:00'
[2024-04-22T00:24:36.366+0000] {taskinstance.py:430} INFO - ::endgroup::
[2024-04-22T00:24:36.372+0000] {baseoperator.py:399} WARNING - ExternalTaskSensor.execute cannot be called outside TaskInstance!
[2024-04-22T00:24:36.372+0000] {external_task.py:258} INFO - Poking for tasks ['calculate_expenses'] in dag operations_a on 2024-04-22T00:24:32.859083+00:00 ... 
[2024-04-22T00:24:36.376+0000] {dagbag.py:540} INFO - Filling up the DagBag from /opt/***/dags/cross-dag-example/operations.py
[2024-04-22T00:24:36.379+0000] {logging_mixin.py:188} WARNING - /home/***/.local/lib/python3.11/site-packages/***/utils/session.py:79 DeprecationWarning: This method is deprecated and will be removed in future.
[2024-04-22T00:24:36.384+0000] {base.py:294} INFO - Success criteria met. Exiting.
[2024-04-22T00:24:36.384+0000] {taskinstance.py:441} INFO - ::group::Post task execution logs
[2024-04-22T00:24:36.388+0000] {taskinstance.py:1205} INFO - Marking task as SUCCESS. dag_id=finances_a, task_id=wait_operations_a_calculate_expenses, execution_date=20240422T002432, start_date=20240422T002436, end_date=20240422T002436
[2024-04-22T00:24:36.402+0000] {local_task_job_runner.py:240} INFO - Task exited with return code 0
[2024-04-22T00:24:36.424+0000] {taskinstance.py:3482} INFO - 0 downstream tasks scheduled from follow-on schedule check
[2024-04-22T00:24:36.427+0000] {local_task_job_runner.py:222} INFO - ::endgroup::
